Assement 1
…
10
Mcdonalds
Double Quarter Pounder with Cheese
770
400

fastfood %>%
  filter(calories > 1000)

## # A tibble: 28 x 18
##     ...1 restaurant item            calories cal_fat total_fat sat_fat trans_fat
##    <dbl> <chr>      <chr>              <dbl>   <dbl>     <dbl>   <dbl>     <dbl>
##  1     3 Mcdonalds  Double Bacon S~     1130     600        67      27       3  
##  2    38 Mcdonalds  10 piece Butte~     1210     630        70      12       1  
##  3    39 Mcdonalds  12 piece Butte~     1510     790        88      15       1  
##  4    40 Mcdonalds  20 piece Butte~     2430    1270       141      24       2  
##  5    45 Mcdonalds  40 piece Chick~     1770     960       107      18       0.5
##  6    48 Mcdonalds  10 piece Sweet~     1600     600        66      10       0  
##  7    99 Sonic      Super Sonic Ba~     1280     830        92      36       4  
##  8   100 Sonic      Super Sonic Do~     1120     680        76      32       4  
##  9   101 Sonic      Super Sonic Do~     1130     680        76      32       4  
## 10   102 Sonic      Super Sonic Do~     1220     780        87      34       4  
## # ... with 18 more rows, and 10 more variables: cholesterol <dbl>,
## #   sodium <dbl>, total_carb <dbl>, fiber <dbl>, sugar <dbl>, protein <dbl>,
## #   vit_a <dbl>, vit_c <dbl>, calcium <dbl>, salad <chr>
…
